<svg width="209" height="64" viewBox="0 0 209 64" fill="none" xmlns="http://www.w3.org/2000/svg">
<path d="M165.035 11V0.968994H168.234C168.85 0.968994 169.38 1.02966 169.823 1.15099C170.271 1.27233 170.637 1.44499 170.922 1.66899C171.211 1.89299 171.424 2.16833 171.559 2.49499C171.699 2.81699 171.769 3.18099 171.769 3.58699C171.769 3.83433 171.729 4.07233 171.65 4.30099C171.575 4.52966 171.459 4.74199 171.3 4.93799C171.146 5.13399 170.95 5.30899 170.712 5.46299C170.479 5.61699 170.203 5.74299 169.886 5.84099C170.619 5.98566 171.172 6.24933 171.545 6.63199C171.918 7.01466 172.105 7.51866 172.105 8.14399C172.105 8.56866 172.026 8.956 171.867 9.30599C171.713 9.656 171.484 9.957 171.181 10.209C170.882 10.461 170.514 10.657 170.075 10.797C169.641 10.9323 169.144 11 168.584 11H165.035ZM166.393 6.42899V9.92199H168.563C168.95 9.92199 169.282 9.87766 169.557 9.78899C169.837 9.70033 170.066 9.57666 170.243 9.41799C170.425 9.25466 170.558 9.06333 170.642 8.84399C170.726 8.61999 170.768 8.37499 170.768 8.10899C170.768 7.59099 170.584 7.18266 170.215 6.88399C169.851 6.58066 169.298 6.42899 168.556 6.42899H166.393ZM166.393 5.46299H168.185C168.568 5.46299 168.899 5.42099 169.179 5.33699C169.459 5.25299 169.69 5.13633 169.872 4.98699C170.059 4.83766 170.196 4.65799 170.285 4.44799C170.374 4.23333 170.418 3.99999 170.418 3.74799C170.418 3.15999 170.241 2.72833 169.886 2.45299C169.531 2.17766 168.981 2.03999 168.234 2.03999H166.393V5.46299Z" fill="#8A8E97"/>
<path d="M182.66 0.968994V2.07499H177.844V5.40699H181.743V6.47099H177.844V9.89399H182.66V11H176.479V0.968994H182.66Z" fill="#8A8E97"/>
<path d="M193.826 0.968994V2.10999H190.585V11H189.227V2.10999H185.972V0.968994H193.826Z" fill="#8A8E97"/>
<path d="M204.955 11H203.905C203.784 11 203.686 10.9697 203.611 10.909C203.537 10.8483 203.481 10.7713 203.443 10.678L202.505 8.25599H198.004L197.066 10.678C197.034 10.762 196.978 10.8367 196.898 10.902C196.819 10.9673 196.721 11 196.604 11H195.554L199.565 0.968994H200.944L204.955 11ZM198.382 7.27599H202.127L200.552 3.19499C200.45 2.94299 200.349 2.62799 200.251 2.24999C200.2 2.44133 200.149 2.61866 200.097 2.78199C200.051 2.94066 200.004 3.08066 199.957 3.20199L198.382 7.27599Z" fill="#8A8E97"/>
<path fill-rule="evenodd" clip-rule="evenodd" d="M1.3586 9.33418C1.16154 8.23394 1.90447 7.18574 3.00787 7.00724L21.2357 4.0584C22.3193 3.88309 23.3417 4.61396 23.5265 5.696L32.4666 58.038C32.6533 59.1309 31.9152 60.1672 30.8213 60.3479L13.027 63.2886C11.9476 63.467 10.9251 62.7449 10.7322 61.668L1.3586 9.33418Z" fill="#EB3F93"/>
<rect x="28.5957" width="13.564" height="16.838" rx="2" fill="#3DC9FF"/>
<path fill-rule="evenodd" clip-rule="evenodd" d="M48.582 5.70906C48.845 4.62646 49.9419 3.96747 51.0213 4.24364L62.6962 7.231C63.7571 7.50246 64.4024 8.57662 64.1439 9.64074L59.1234 30.3056C58.8604 31.3882 57.7635 32.0472 56.6842 31.771L45.0092 28.7837C43.9483 28.5122 43.303 27.4381 43.5615 26.374L48.582 5.70906Z" fill="#00DA9E"/>
<path fill-rule="evenodd" clip-rule="evenodd" d="M142.921 13.5973C142.159 14.3593 141.201 14.7403 140.048 14.7403C138.894 14.7403 137.936 14.3593 137.174 13.5973C136.412 12.8353 136.031 11.8773 136.031 10.7234C136.031 9.56945 136.412 8.61148 137.174 7.84947C137.936 7.08745 138.894 6.70642 140.048 6.70642C141.201 6.70642 142.159 7.08745 142.921 7.84947C143.683 8.61148 144.064 9.56945 144.064 10.7234C144.064 11.8773 143.683 12.8353 142.921 13.5973ZM86.695 35.4784V52.8527H80V20.7495H85.5612L86.695 24.0807L87.1195 23.6561C87.3155 23.4602 87.7292 23.139 88.3606 22.6927C88.9919 22.2463 89.6614 21.8436 90.369 21.4843C91.0767 21.1251 91.9802 20.7985 93.0797 20.5046C94.1792 20.2106 95.2842 20.0637 96.3946 20.0637H98.0601V26.4321C97.1675 26.2143 96.1659 26.1055 95.0555 26.1055C92.5082 26.1055 90.4779 26.9274 88.9647 28.5712C87.4516 30.215 86.695 32.5174 86.695 35.4784ZM115.923 53.0814C114.835 53.3644 113.735 53.5059 112.625 53.5059C109.359 53.5059 106.648 52.5588 104.493 50.6646C102.337 48.7704 101.26 46.6041 101.26 44.1656C101.26 41.5312 102.092 39.3213 103.758 37.5359C105.424 35.7506 107.704 34.6184 110.6 34.1394L122.324 32.1146C122.324 30.4164 121.698 28.9903 120.447 27.8363C119.195 26.6824 117.589 26.1055 115.629 26.1055C113.931 26.1055 112.391 26.4592 111.008 27.1668C109.626 27.8745 108.673 28.5875 108.151 29.306L107.269 30.449L102.925 26.1055C103.056 25.9313 103.236 25.7081 103.464 25.436C103.693 25.1638 104.204 24.6848 104.999 23.999C105.794 23.3132 106.637 22.6981 107.53 22.1538C108.423 21.6095 109.604 21.1251 111.074 20.7005C112.543 20.276 114.062 20.0637 115.629 20.0637C119.548 20.0637 122.76 21.2231 125.264 23.5418C127.767 25.8605 129.019 28.7182 129.019 32.1146V52.8527L123.757 52.8527L122.324 49.5216C122.237 49.6087 122.09 49.7502 121.883 49.9462C121.677 50.1421 121.263 50.4632 120.642 50.9096C120.022 51.3559 119.352 51.7587 118.634 52.1179C117.915 52.4772 117.012 52.7983 115.923 53.0814ZM113.17 47.4968C111.428 47.4968 110.04 47.094 109.006 46.2884C107.971 45.4828 107.454 44.5466 107.454 43.4798C107.454 42.3258 107.824 41.3679 108.565 40.6058C109.305 39.8438 110.274 39.354 111.471 39.1362L121.857 37.4706V38.1238C121.857 41.1284 121.089 43.4417 119.554 45.0637C118.019 46.6858 115.891 47.4968 113.17 47.4968ZM143.379 52.8527V18.8441L136.684 20.7495V52.8527H143.379ZM169.479 50.5666C167.247 52.5261 164.346 53.5059 160.775 53.5059C159.208 53.5059 157.711 53.3099 156.285 52.918C154.859 52.5261 153.688 52.058 152.774 51.5137C151.86 50.9694 151.059 50.4196 150.374 49.8644C149.688 49.3092 149.192 48.8357 148.888 48.4438L148.398 47.8233L152.741 43.4797C152.959 43.7845 153.28 44.1656 153.705 44.6228C154.129 45.08 155.044 45.6733 156.448 46.4027C157.852 47.132 159.295 47.4967 160.775 47.4967C162.561 47.4967 163.9 47.132 164.792 46.4027C165.685 45.6733 166.131 44.699 166.131 43.4798C166.131 42.5435 165.728 41.7652 164.923 41.1447C164.117 40.5242 163.105 40.0452 161.886 39.7077C160.666 39.3703 159.355 38.9566 157.95 38.4667C156.546 37.9768 155.229 37.4325 153.999 36.8338C152.769 36.235 151.751 35.2988 150.945 34.0251C150.139 32.7515 149.737 31.222 149.737 29.4366C149.737 26.9764 150.82 24.7991 152.986 22.905C155.153 21.0108 157.858 20.0637 161.102 20.0637C162.386 20.0637 163.633 20.2106 164.841 20.5046C166.05 20.7985 167.035 21.1577 167.797 21.5823C168.559 22.0069 169.228 22.4423 169.805 22.8886C170.382 23.335 170.801 23.6888 171.063 23.95L171.487 24.4399L167.144 28.7834C166.969 28.6092 166.714 28.3643 166.376 28.0486C166.039 27.7329 165.342 27.3301 164.286 26.8402C163.23 26.3504 162.169 26.1054 161.102 26.1054C159.665 26.1054 158.527 26.4375 157.689 27.1015C156.851 27.7655 156.432 28.5439 156.432 29.4365C156.432 30.3728 156.834 31.1566 157.64 31.788C158.446 32.4193 159.458 32.8983 160.677 33.2249C161.896 33.5515 163.208 33.9597 164.613 34.4496C166.017 34.9395 167.334 35.4892 168.564 36.0989C169.794 36.7085 170.812 37.6447 171.618 38.9075C172.423 40.1703 172.826 41.6944 172.826 43.4797C172.826 46.2448 171.71 48.6071 169.479 50.5666ZM192.868 53.5059C194.566 53.5059 196.215 53.2609 197.816 52.771C199.416 52.2812 200.717 51.7478 201.718 51.1708C202.72 50.5938 203.667 49.9298 204.56 49.1786C205.452 48.4275 206.035 47.8941 206.307 47.5784C206.579 47.2626 206.78 47.0177 206.911 46.8435L202.568 42.5L201.555 43.741C200.88 44.5466 199.732 45.3739 198.11 46.223C196.488 47.0721 194.74 47.4967 192.868 47.4967C190.277 47.4967 188.04 46.6694 186.157 45.0147C184.273 43.36 183.157 41.4005 182.809 39.1362L207.891 39.1362L208.25 35.805C208.25 31.2982 206.753 27.5479 203.76 24.5542C200.766 21.5605 197.021 20.0637 192.525 20.0637C188.029 20.0637 184.175 21.6694 180.964 24.8808C177.753 28.0922 176.147 31.9513 176.147 36.4582C176.147 41.1392 177.796 45.1508 181.095 48.4928C184.393 51.8348 188.318 53.5059 192.868 53.5059ZM183.103 33.4536H201.686C201.294 31.1893 200.281 29.3441 198.648 27.918C197.016 26.4919 194.969 25.7789 192.509 25.7789C190.092 25.7789 188.062 26.4919 186.418 27.918C184.774 29.3441 183.669 31.1893 183.103 33.4536Z" fill="#3C4251"/>
</svg>
