<?xml version="1.0" encoding="UTF-8"?>
<svg width="116px" height="380px" viewBox="0 0 116 380" version="1.1" xmlns="http://www.w3.org/2000/svg" xmlns:xlink="http://www.w3.org/1999/xlink">
    <!-- Generator: Sketch 57.1 (83088) - https://sketch.com -->
    <title>img / segment_blue</title>
    <desc>Created with Sketch.</desc>
    <g id="img-/-segment_blue" stroke="none" stroke-width="1" fill="none" fill-rule="evenodd">
        <path d="M116,379 C100.917318,371.629842 86.6788919,363.066827 73.2847226,353.310956 C1.6902354,297.989388 -18.9961967,216.026065 25.0658328,145.232476 C25.1262967,145.13533 25.1868709,145.038253 25.2475552,144.941245 C65.5955403,80.5314329 95.8463552,32.2176846 116,0 C116,3.00105286 116,374.99408 116,379 Z" id="Path" fill="#B1E9FF"></path>
        <path d="M116,327 C57.0902809,279.801189 40.9709927,195.530459 81.9237983,129.927046 C81.9605895,129.868109 81.9974214,129.809198 82.034294,129.750312 C97.1939631,105.869049 108.515865,87.9522787 116,76 C116,81 116,325 116,327 Z" id="Path" fill="#82DCFF"></path>
    </g>
</svg>