<svg width="133" height="41" viewBox="0 0 133 41" fill="none" xmlns="http://www.w3.org/2000/svg">
<path d="M104.734 7.08998V0.624512H106.764C107.155 0.624512 107.491 0.663614 107.772 0.74182C108.057 0.820025 108.289 0.931317 108.47 1.0757C108.653 1.22008 108.788 1.39754 108.874 1.60809C108.963 1.81564 109.007 2.05025 109.007 2.31194C109.007 2.47136 108.982 2.62476 108.932 2.77215C108.884 2.91954 108.81 3.0564 108.71 3.18273C108.612 3.30906 108.488 3.42185 108.337 3.52112C108.189 3.62038 108.014 3.70159 107.812 3.76476C108.277 3.858 108.628 4.02795 108.865 4.27459C109.102 4.52124 109.221 4.84609 109.221 5.24915C109.221 5.52287 109.17 5.77253 109.07 5.99812C108.972 6.22371 108.827 6.41772 108.634 6.58015C108.445 6.74257 108.211 6.8689 107.932 6.95914C107.657 7.04637 107.342 7.08998 106.986 7.08998H104.734ZM105.596 4.14375V6.39516H106.973C107.219 6.39516 107.429 6.36659 107.604 6.30944C107.781 6.25229 107.926 6.17258 108.039 6.07031C108.154 5.96503 108.239 5.84171 108.292 5.70034C108.345 5.55596 108.372 5.39804 108.372 5.22659C108.372 4.89272 108.255 4.62953 108.021 4.43702C107.79 4.24151 107.439 4.14375 106.968 4.14375H105.596ZM105.596 3.52112H106.733C106.976 3.52112 107.186 3.49404 107.364 3.4399C107.541 3.38576 107.688 3.31056 107.804 3.21431C107.922 3.11806 108.009 3.00225 108.066 2.8669C108.122 2.72854 108.15 2.57814 108.15 2.41571C108.15 2.03672 108.037 1.75849 107.812 1.58102C107.587 1.40356 107.238 1.31482 106.764 1.31482H105.596V3.52112Z" fill="white"/>
<path d="M115.919 0.624512V1.33738H112.863V3.48502H115.337V4.17082H112.863V6.37711H115.919V7.08998H111.997V0.624512H115.919Z" fill="white"/>
<path d="M123.005 0.624512V1.35994H120.948V7.08998H120.087V1.35994H118.021V0.624512H123.005Z" fill="white"/>
<path d="M130.068 7.08998H129.402C129.325 7.08998 129.262 7.07043 129.215 7.03133C129.168 6.99223 129.132 6.9426 129.108 6.88244L128.513 5.32134H125.657L125.061 6.88244C125.041 6.93658 125.005 6.98471 124.955 7.02682C124.905 7.06893 124.842 7.08998 124.768 7.08998H124.102L126.647 0.624512H127.523L130.068 7.08998ZM125.897 4.68968H128.273L127.274 2.05928C127.209 1.89685 127.145 1.69382 127.083 1.45018C127.05 1.5735 127.018 1.6878 126.985 1.79308C126.955 1.89535 126.926 1.98558 126.896 2.06379L125.897 4.68968Z" fill="white"/>
<path fill-rule="evenodd" clip-rule="evenodd" d="M0.985954 6.71852C0.792532 5.62173 1.53231 4.57822 2.63129 4.39764L12.7522 2.73468C13.8393 2.55606 14.8661 3.29015 15.0488 4.37653L20.4868 36.7128C20.67 37.8023 19.9351 38.834 18.8455 39.0169L8.98771 40.6715C7.90474 40.8533 6.87776 40.1279 6.68704 39.0465L0.985954 6.71852Z" fill="white"/>
<rect x="18.1472" width="8.6079" height="10.8529" rx="2" fill="white"/>
<path fill-rule="evenodd" clip-rule="evenodd" d="M30.6596 4.39499C30.9201 3.30591 32.024 2.6429 33.1078 2.92457L39.1042 4.48292C40.1585 4.75694 40.7997 5.8244 40.5462 6.8839L37.6916 18.818C37.4311 19.907 36.3272 20.57 35.2434 20.2884L29.247 18.73C28.1926 18.456 27.5515 17.3886 27.8049 16.329L30.6596 4.39499Z" fill="white"/>
<path fill-rule="evenodd" clip-rule="evenodd" d="M90.7002 8.76425C90.2166 9.25541 89.6087 9.501 88.8764 9.501C88.1441 9.501 87.5361 9.25541 87.0525 8.76425C86.5689 8.27309 86.3271 7.65563 86.3271 6.91188C86.3271 6.16812 86.5689 5.55066 87.0525 5.0595C87.5361 4.56834 88.1441 4.32275 88.8764 4.32275C89.6087 4.32275 90.2166 4.56834 90.7002 5.0595C91.1838 5.55066 91.4256 6.16812 91.4256 6.91188C91.4256 7.65563 91.1838 8.27309 90.7002 8.76425ZM55.018 22.8677V34.0663H50.7693V13.3742H54.2985L55.018 15.5213L55.2875 15.2477C55.4118 15.1214 55.6743 14.9144 56.075 14.6267C56.4757 14.339 56.9006 14.0794 57.3496 13.8478C57.7987 13.6163 58.3721 13.4058 59.0699 13.2163C59.7676 13.0269 60.4689 12.9322 61.1735 12.9322H62.2305V17.0369C61.664 16.8966 61.0284 16.8264 60.3238 16.8264C58.7072 16.8264 57.4187 17.3562 56.4584 18.4157C55.4982 19.4752 55.018 20.9592 55.018 22.8677ZM73.5668 34.2137C72.8759 34.3961 72.1782 34.4873 71.4735 34.4873C69.4009 34.4873 67.6807 33.8769 66.3128 32.656C64.945 31.4351 64.261 30.0388 64.261 28.467C64.261 26.769 64.7895 25.3446 65.8465 24.1939C66.9035 23.0431 68.3508 22.3134 70.1885 22.0047L77.629 20.6996C77.629 19.605 77.2317 18.6858 76.4373 17.942C75.6428 17.1983 74.6238 16.8264 73.3802 16.8264C72.3025 16.8264 71.325 17.0544 70.4476 17.5105C69.5702 17.9666 68.9657 18.4262 68.6341 18.8893L68.0745 19.626L65.318 16.8264C65.4009 16.7141 65.5149 16.5703 65.66 16.3949C65.8051 16.2195 66.1298 15.9107 66.6341 15.4687C67.1384 15.0266 67.6738 14.6302 68.2403 14.2794C68.8068 13.9285 69.5564 13.6163 70.489 13.3426C71.4217 13.069 72.3854 12.9322 73.3802 12.9322C75.8673 12.9322 77.9053 13.6794 79.4943 15.174C81.0832 16.6685 81.8777 18.5104 81.8777 20.6996V34.0663L78.538 34.0663L77.629 31.9192C77.5737 31.9754 77.4804 32.0666 77.3492 32.1929C77.2179 32.3192 76.9554 32.5262 76.5616 32.8139C76.1678 33.1016 75.743 33.3612 75.287 33.5927C74.831 33.8243 74.2576 34.0312 73.5668 34.2137ZM71.8192 30.6141C70.7138 30.6141 69.833 30.3545 69.1767 29.8353C68.5203 29.3161 68.1922 28.7126 68.1922 28.025C68.1922 27.2812 68.4271 26.6638 68.8969 26.1726C69.3666 25.6814 69.9815 25.3657 70.7415 25.2254L77.3322 24.1518V24.5728C77.3322 26.5094 76.8451 28.0004 75.871 29.0459C74.8969 30.0914 73.5463 30.6141 71.8192 30.6141ZM90.9903 34.0663V12.1461L86.7416 13.3742V34.0663H90.9903ZM107.554 32.5928C106.138 33.8558 104.296 34.4873 102.031 34.4873C101.036 34.4873 100.086 34.361 99.1807 34.1084C98.2757 33.8558 97.5331 33.5541 96.9528 33.2032C96.3724 32.8524 95.8647 32.4981 95.4294 32.1402C94.9942 31.7824 94.6798 31.4771 94.4864 31.2245L94.1755 30.8246L96.932 28.025C97.0702 28.2214 97.274 28.467 97.5434 28.7617C97.8129 29.0564 98.3932 29.4388 99.2844 29.9089C100.176 30.379 101.091 30.6141 102.031 30.6141C103.164 30.6141 104.013 30.379 104.58 29.9089C105.146 29.4388 105.429 28.8108 105.429 28.025C105.429 27.4215 105.174 26.9199 104.663 26.5199C104.151 26.12 103.509 25.8112 102.735 25.5937C101.961 25.3762 101.129 25.1096 100.238 24.7938C99.3465 24.4781 98.5106 24.1272 97.73 23.7413C96.9493 23.3554 96.3033 22.752 95.7921 21.931C95.2809 21.1101 95.0253 20.1242 95.0253 18.9735C95.0253 17.3877 95.7127 15.9844 97.0874 14.7635C98.4622 13.5426 100.179 12.9322 102.238 12.9322C103.053 12.9322 103.844 13.0269 104.611 13.2163C105.378 13.4058 106.003 13.6373 106.486 13.911C106.97 14.1846 107.395 14.4653 107.761 14.753C108.127 15.0407 108.393 15.2687 108.559 15.4371L108.828 15.7529L106.072 18.5525C105.961 18.4402 105.799 18.2823 105.585 18.0788C105.371 17.8753 104.929 17.6157 104.258 17.3C103.588 16.9842 102.915 16.8264 102.238 16.8264C101.326 16.8264 100.604 17.0404 100.072 17.4684C99.5399 17.8964 99.274 18.3981 99.274 18.9734C99.274 19.5769 99.5296 20.0821 100.041 20.489C100.552 20.896 101.195 21.2047 101.968 21.4152C102.742 21.6257 103.575 21.8889 104.466 22.2046C105.357 22.5204 106.193 22.8747 106.973 23.2676C107.754 23.6606 108.4 24.264 108.911 25.0779C109.423 25.8919 109.678 26.8742 109.678 28.025C109.678 29.8072 108.97 31.3298 107.554 32.5928ZM122.397 34.4873C123.475 34.4873 124.521 34.3294 125.537 34.0137C126.553 33.6979 127.378 33.3541 128.014 32.9822C128.649 32.6103 129.25 32.1823 129.817 31.6982C130.383 31.214 130.753 30.8702 130.926 30.6667C131.098 30.4632 131.226 30.3054 131.309 30.1931L128.553 27.3935L127.91 28.1934C127.482 28.7126 126.753 29.2459 125.723 29.7932C124.694 30.3405 123.585 30.6141 122.397 30.6141C120.753 30.6141 119.333 30.0808 118.138 29.0143C116.943 27.9478 116.235 26.6848 116.014 25.2253L131.931 25.2253L132.159 23.0782C132.159 20.1733 131.209 17.7561 129.309 15.8265C127.409 13.8969 125.033 12.9322 122.179 12.9322C119.326 12.9322 116.881 13.9671 114.843 16.037C112.805 18.1069 111.786 20.5943 111.786 23.4992C111.786 26.5164 112.832 29.102 114.925 31.2561C117.019 33.4102 119.509 34.4873 122.397 34.4873ZM116.2 21.5626H127.993C127.744 20.1032 127.102 18.9138 126.065 17.9947C125.029 17.0755 123.73 16.6159 122.169 16.6159C120.635 16.6159 119.347 17.0755 118.304 17.9947C117.261 18.9138 116.559 20.1032 116.2 21.5626Z" fill="white"/>
</svg>
